<?xml version="1.0" encoding="UTF-8"?>
<svg xmlns="http://www.w3.org/2000/svg" xmlns:xlink="http://www.w3.org/1999/xlink" width="377.641pt" height="335.473pt" viewBox="0 0 377.641 335.473" version="1.1">
<defs>
<g>
<symbol overflow="visible" id="glyph0-0">
<path style="stroke:none;" d=""/>
</symbol>
<symbol overflow="visible" id="glyph0-1">
<path style="stroke:none;" d="M 4.578125 -3.1875 C 4.578125 -3.984375 4.53125 -4.78125 4.1875 -5.515625 C 3.734375 -6.484375 2.90625 -6.640625 2.5 -6.640625 C 1.890625 -6.640625 1.171875 -6.375 0.75 -5.453125 C 0.4375 -4.765625 0.390625 -3.984375 0.390625 -3.1875 C 0.390625 -2.4375 0.421875 -1.546875 0.84375 -0.78125 C 1.265625 0.015625 2 0.21875 2.484375 0.21875 C 3.015625 0.21875 3.78125 0.015625 4.21875 -0.9375 C 4.53125 -1.625 4.578125 -2.40625 4.578125 -3.1875 Z M 2.484375 0 C 2.09375 0 1.5 -0.25 1.328125 -1.203125 C 1.21875 -1.796875 1.21875 -2.71875 1.21875 -3.3125 C 1.21875 -3.953125 1.21875 -4.609375 1.296875 -5.140625 C 1.484375 -6.328125 2.234375 -6.421875 2.484375 -6.421875 C 2.8125 -6.421875 3.46875 -6.234375 3.65625 -5.25 C 3.765625 -4.6875 3.765625 -3.9375 3.765625 -3.3125 C 3.765625 -2.5625 3.765625 -1.890625 3.65625 -1.25 C 3.5 -0.296875 2.9375 0 2.484375 0 Z M 2.484375 0 "/>
</symbol>
<symbol overflow="visible" id="glyph0-2">
<path style="stroke:none;" d="M 4.46875 -2 C 4.46875 -3.1875 3.65625 -4.1875 2.578125 -4.1875 C 2.109375 -4.1875 1.671875 -4.03125 1.3125 -3.671875 L 1.3125 -5.625 C 1.515625 -5.5625 1.84375 -5.5 2.15625 -5.5 C 3.390625 -5.5 4.09375 -6.40625 4.09375 -6.53125 C 4.09375 -6.59375 4.0625 -6.640625 3.984375 -6.640625 C 3.984375 -6.640625 3.953125 -6.640625 3.90625 -6.609375 C 3.703125 -6.515625 3.21875 -6.3125 2.546875 -6.3125 C 2.15625 -6.3125 1.6875 -6.390625 1.21875 -6.59375 C 1.140625 -6.625 1.125 -6.625 1.109375 -6.625 C 1 -6.625 1 -6.546875 1 -6.390625 L 1 -3.4375 C 1 -3.265625 1 -3.1875 1.140625 -3.1875 C 1.21875 -3.1875 1.234375 -3.203125 1.28125 -3.265625 C 1.390625 -3.421875 1.75 -3.96875 2.5625 -3.96875 C 3.078125 -3.96875 3.328125 -3.515625 3.40625 -3.328125 C 3.5625 -2.953125 3.59375 -2.578125 3.59375 -2.078125 C 3.59375 -1.71875 3.59375 -1.125 3.34375 -0.703125 C 3.109375 -0.3125 2.734375 -0.0625 2.28125 -0.0625 C 1.5625 -0.0625 0.984375 -0.59375 0.8125 -1.171875 C 0.84375 -1.171875 0.875 -1.15625 0.984375 -1.15625 C 1.3125 -1.15625 1.484375 -1.40625 1.484375 -1.640625 C 1.484375 -1.890625 1.3125 -2.140625 0.984375 -2.140625 C 0.84375 -2.140625 0.5 -2.0625 0.5 -1.609375 C 0.5 -0.75 1.1875 0.21875 2.296875 0.21875 C 3.453125 0.21875 4.46875 -0.734375 4.46875 -2 Z M 4.46875 -2 "/>
</symbol>
<symbol overflow="visible" id="glyph0-3">
<path style="stroke:none;" d="M 2.9375 -6.375 C 2.9375 -6.625 2.9375 -6.640625 2.703125 -6.640625 C 2.078125 -6 1.203125 -6 0.890625 -6 L 0.890625 -5.6875 C 1.09375 -5.6875 1.671875 -5.6875 2.1875 -5.953125 L 2.1875 -0.78125 C 2.1875 -0.421875 2.15625 -0.3125 1.265625 -0.3125 L 0.953125 -0.3125 L 0.953125 0 C 1.296875 -0.03125 2.15625 -0.03125 2.5625 -0.03125 C 2.953125 -0.03125 3.828125 -0.03125 4.171875 0 L 4.171875 -0.3125 L 3.859375 -0.3125 C 2.953125 -0.3125 2.9375 -0.421875 2.9375 -0.78125 Z M 2.9375 -6.375 "/>
</symbol>
<symbol overflow="visible" id="glyph0-4">
<path style="stroke:none;" d="M 1.265625 -0.765625 L 2.328125 -1.796875 C 3.875 -3.171875 4.46875 -3.703125 4.46875 -4.703125 C 4.46875 -5.84375 3.578125 -6.640625 2.359375 -6.640625 C 1.234375 -6.640625 0.5 -5.71875 0.5 -4.828125 C 0.5 -4.28125 1 -4.28125 1.03125 -4.28125 C 1.203125 -4.28125 1.546875 -4.390625 1.546875 -4.8125 C 1.546875 -5.0625 1.359375 -5.328125 1.015625 -5.328125 C 0.9375 -5.328125 0.921875 -5.328125 0.890625 -5.3125 C 1.109375 -5.96875 1.65625 -6.328125 2.234375 -6.328125 C 3.140625 -6.328125 3.5625 -5.515625 3.5625 -4.703125 C 3.5625 -3.90625 3.078125 -3.125 2.515625 -2.5 L 0.609375 -0.375 C 0.5 -0.265625 0.5 -0.234375 0.5 0 L 4.203125 0 L 4.46875 -1.734375 L 4.234375 -1.734375 C 4.171875 -1.4375 4.109375 -1 4 -0.84375 C 3.9375 -0.765625 3.28125 -0.765625 3.0625 -0.765625 Z M 1.265625 -0.765625 "/>
</symbol>
<symbol overflow="visible" id="glyph0-5">
<path style="stroke:none;" d="M 2.890625 -3.515625 C 3.703125 -3.78125 4.28125 -4.46875 4.28125 -5.265625 C 4.28125 -6.078125 3.40625 -6.640625 2.453125 -6.640625 C 1.453125 -6.640625 0.6875 -6.046875 0.6875 -5.28125 C 0.6875 -4.953125 0.90625 -4.765625 1.203125 -4.765625 C 1.5 -4.765625 1.703125 -4.984375 1.703125 -5.28125 C 1.703125 -5.765625 1.234375 -5.765625 1.09375 -5.765625 C 1.390625 -6.265625 2.046875 -6.390625 2.40625 -6.390625 C 2.828125 -6.390625 3.375 -6.171875 3.375 -5.28125 C 3.375 -5.15625 3.34375 -4.578125 3.09375 -4.140625 C 2.796875 -3.65625 2.453125 -3.625 2.203125 -3.625 C 2.125 -3.609375 1.890625 -3.59375 1.8125 -3.59375 C 1.734375 -3.578125 1.671875 -3.5625 1.671875 -3.46875 C 1.671875 -3.359375 1.734375 -3.359375 1.90625 -3.359375 L 2.34375 -3.359375 C 3.15625 -3.359375 3.53125 -2.6875 3.53125 -1.703125 C 3.53125 -0.34375 2.84375 -0.0625 2.40625 -0.0625 C 1.96875 -0.0625 1.21875 -0.234375 0.875 -0.8125 C 1.21875 -0.765625 1.53125 -0.984375 1.53125 -1.359375 C 1.53125 -1.71875 1.265625 -1.921875 0.984375 -1.921875 C 0.734375 -1.921875 0.421875 -1.78125 0.421875 -1.34375 C 0.421875 -0.4375 1.34375 0.21875 2.4375 0.21875 C 3.65625 0.21875 4.5625 -0.6875 4.5625 -1.703125 C 4.5625 -2.515625 3.921875 -3.296875 2.890625 -3.515625 Z M 2.890625 -3.515625 "/>
</symbol>
<symbol overflow="visible" id="glyph0-6">
<path style="stroke:none;" d="M 2.9375 -1.640625 L 2.9375 -0.78125 C 2.9375 -0.421875 2.90625 -0.3125 2.171875 -0.3125 L 1.96875 -0.3125 L 1.96875 0 C 2.375 -0.03125 2.890625 -0.03125 3.3125 -0.03125 C 3.734375 -0.03125 4.25 -0.03125 4.671875 0 L 4.671875 -0.3125 L 4.453125 -0.3125 C 3.71875 -0.3125 3.703125 -0.421875 3.703125 -0.78125 L 3.703125 -1.640625 L 4.6875 -1.640625 L 4.6875 -1.953125 L 3.703125 -1.953125 L 3.703125 -6.484375 C 3.703125 -6.6875 3.703125 -6.75 3.53125 -6.75 C 3.453125 -6.75 3.421875 -6.75 3.34375 -6.625 L 0.28125 -1.953125 L 0.28125 -1.640625 Z M 2.984375 -1.953125 L 0.5625 -1.953125 L 2.984375 -5.671875 Z M 2.984375 -1.953125 "/>
</symbol>
<symbol overflow="visible" id="glyph0-7">
<path style="stroke:none;" d="M 1.71875 -3.984375 L 3.15625 -3.984375 L 3.15625 -4.296875 L 1.71875 -4.296875 L 1.71875 -6.125 L 1.46875 -6.125 C 1.46875 -5.3125 1.171875 -4.25 0.1875 -4.203125 L 0.1875 -3.984375 L 1.03125 -3.984375 L 1.03125 -1.234375 C 1.03125 -0.015625 1.96875 0.109375 2.328125 0.109375 C 3.03125 0.109375 3.3125 -0.59375 3.3125 -1.234375 L 3.3125 -1.796875 L 3.0625 -1.796875 L 3.0625 -1.25 C 3.0625 -0.515625 2.765625 -0.140625 2.390625 -0.140625 C 1.71875 -0.140625 1.71875 -1.046875 1.71875 -1.21875 Z M 1.71875 -3.984375 "/>
</symbol>
<symbol overflow="visible" id="glyph0-8">
<path style="stroke:none;" d="M 1.765625 -4.40625 L 0.375 -4.296875 L 0.375 -3.984375 C 1.015625 -3.984375 1.109375 -3.921875 1.109375 -3.4375 L 1.109375 -0.75 C 1.109375 -0.3125 1 -0.3125 0.328125 -0.3125 L 0.328125 0 C 0.640625 -0.015625 1.1875 -0.03125 1.421875 -0.03125 C 1.78125 -0.03125 2.125 -0.015625 2.46875 0 L 2.46875 -0.3125 C 1.796875 -0.3125 1.765625 -0.359375 1.765625 -0.75 Z M 1.796875 -6.140625 C 1.796875 -6.453125 1.5625 -6.671875 1.28125 -6.671875 C 0.96875 -6.671875 0.75 -6.40625 0.75 -6.140625 C 0.75 -5.875 0.96875 -5.609375 1.28125 -5.609375 C 1.5625 -5.609375 1.796875 -5.828125 1.796875 -6.140625 Z M 1.796875 -6.140625 "/>
</symbol>
<symbol overflow="visible" id="glyph0-9">
<path style="stroke:none;" d="M 1.09375 -3.421875 L 1.09375 -0.75 C 1.09375 -0.3125 0.984375 -0.3125 0.3125 -0.3125 L 0.3125 0 C 0.671875 -0.015625 1.171875 -0.03125 1.453125 -0.03125 C 1.703125 -0.03125 2.21875 -0.015625 2.5625 0 L 2.5625 -0.3125 C 1.890625 -0.3125 1.78125 -0.3125 1.78125 -0.75 L 1.78125 -2.59375 C 1.78125 -3.625 2.5 -4.1875 3.125 -4.1875 C 3.765625 -4.1875 3.875 -3.65625 3.875 -3.078125 L 3.875 -0.75 C 3.875 -0.3125 3.765625 -0.3125 3.09375 -0.3125 L 3.09375 0 C 3.4375 -0.015625 3.953125 -0.03125 4.21875 -0.03125 C 4.46875 -0.03125 5 -0.015625 5.328125 0 L 5.328125 -0.3125 C 4.671875 -0.3125 4.5625 -0.3125 4.5625 -0.75 L 4.5625 -2.59375 C 4.5625 -3.625 5.265625 -4.1875 5.90625 -4.1875 C 6.53125 -4.1875 6.640625 -3.65625 6.640625 -3.078125 L 6.640625 -0.75 C 6.640625 -0.3125 6.53125 -0.3125 5.859375 -0.3125 L 5.859375 0 C 6.203125 -0.015625 6.71875 -0.03125 6.984375 -0.03125 C 7.25 -0.03125 7.765625 -0.015625 8.109375 0 L 8.109375 -0.3125 C 7.59375 -0.3125 7.34375 -0.3125 7.328125 -0.609375 L 7.328125 -2.515625 C 7.328125 -3.375 7.328125 -3.671875 7.015625 -4.03125 C 6.875 -4.203125 6.546875 -4.40625 5.96875 -4.40625 C 5.140625 -4.40625 4.6875 -3.8125 4.53125 -3.421875 C 4.390625 -4.296875 3.65625 -4.40625 3.203125 -4.40625 C 2.46875 -4.40625 2 -3.984375 1.71875 -3.359375 L 1.71875 -4.40625 L 0.3125 -4.296875 L 0.3125 -3.984375 C 1.015625 -3.984375 1.09375 -3.921875 1.09375 -3.421875 Z M 1.09375 -3.421875 "/>
</symbol>
<symbol overflow="visible" id="glyph0-10">
<path style="stroke:none;" d="M 1.109375 -2.515625 C 1.171875 -4 2.015625 -4.25 2.359375 -4.25 C 3.375 -4.25 3.484375 -2.90625 3.484375 -2.515625 Z M 1.109375 -2.296875 L 3.890625 -2.296875 C 4.109375 -2.296875 4.140625 -2.296875 4.140625 -2.515625 C 4.140625 -3.5 3.59375 -4.46875 2.359375 -4.46875 C 1.203125 -4.46875 0.28125 -3.4375 0.28125 -2.1875 C 0.28125 -0.859375 1.328125 0.109375 2.46875 0.109375 C 3.6875 0.109375 4.140625 -1 4.140625 -1.1875 C 4.140625 -1.28125 4.0625 -1.3125 4 -1.3125 C 3.921875 -1.3125 3.890625 -1.25 3.875 -1.171875 C 3.53125 -0.140625 2.625 -0.140625 2.53125 -0.140625 C 2.03125 -0.140625 1.640625 -0.4375 1.40625 -0.8125 C 1.109375 -1.28125 1.109375 -1.9375 1.109375 -2.296875 Z M 1.109375 -2.296875 "/>
</symbol>
<symbol overflow="visible" id="glyph0-11">
<path style="stroke:none;" d="M 3.296875 2.390625 C 3.296875 2.359375 3.296875 2.34375 3.125 2.171875 C 1.890625 0.921875 1.5625 -0.96875 1.5625 -2.5 C 1.5625 -4.234375 1.9375 -5.96875 3.171875 -7.203125 C 3.296875 -7.328125 3.296875 -7.34375 3.296875 -7.375 C 3.296875 -7.453125 3.265625 -7.484375 3.203125 -7.484375 C 3.09375 -7.484375 2.203125 -6.796875 1.609375 -5.53125 C 1.109375 -4.4375 0.984375 -3.328125 0.984375 -2.5 C 0.984375 -1.71875 1.09375 -0.515625 1.640625 0.625 C 2.25 1.84375 3.09375 2.5 3.203125 2.5 C 3.265625 2.5 3.296875 2.46875 3.296875 2.390625 Z M 3.296875 2.390625 "/>
</symbol>
<symbol overflow="visible" id="glyph0-12">
<path style="stroke:none;" d="M 3.78125 -0.546875 L 3.78125 0.109375 L 5.25 0 L 5.25 -0.3125 C 4.5625 -0.3125 4.46875 -0.375 4.46875 -0.875 L 4.46875 -6.921875 L 3.046875 -6.8125 L 3.046875 -6.5 C 3.734375 -6.5 3.8125 -6.4375 3.8125 -5.9375 L 3.8125 -3.78125 C 3.53125 -4.140625 3.09375 -4.40625 2.5625 -4.40625 C 1.390625 -4.40625 0.34375 -3.421875 0.34375 -2.140625 C 0.34375 -0.875 1.3125 0.109375 2.453125 0.109375 C 3.09375 0.109375 3.53125 -0.234375 3.78125 -0.546875 Z M 3.78125 -3.21875 L 3.78125 -1.171875 C 3.78125 -1 3.78125 -0.984375 3.671875 -0.8125 C 3.375 -0.328125 2.9375 -0.109375 2.5 -0.109375 C 2.046875 -0.109375 1.6875 -0.375 1.453125 -0.75 C 1.203125 -1.15625 1.171875 -1.71875 1.171875 -2.140625 C 1.171875 -2.5 1.1875 -3.09375 1.46875 -3.546875 C 1.6875 -3.859375 2.0625 -4.1875 2.609375 -4.1875 C 2.953125 -4.1875 3.375 -4.03125 3.671875 -3.59375 C 3.78125 -3.421875 3.78125 -3.40625 3.78125 -3.21875 Z M 3.78125 -3.21875 "/>
</symbol>
<symbol overflow="visible" id="glyph0-13">
<path style="stroke:none;" d="M 3.3125 -0.75 C 3.359375 -0.359375 3.625 0.0625 4.09375 0.0625 C 4.3125 0.0625 4.921875 -0.078125 4.921875 -0.890625 L 4.921875 -1.453125 L 4.671875 -1.453125 L 4.671875 -0.890625 C 4.671875 -0.3125 4.421875 -0.25 4.3125 -0.25 C 3.984375 -0.25 3.9375 -0.703125 3.9375 -0.75 L 3.9375 -2.734375 C 3.9375 -3.15625 3.9375 -3.546875 3.578125 -3.921875 C 3.1875 -4.3125 2.6875 -4.46875 2.21875 -4.46875 C 1.390625 -4.46875 0.703125 -4 0.703125 -3.34375 C 0.703125 -3.046875 0.90625 -2.875 1.171875 -2.875 C 1.453125 -2.875 1.625 -3.078125 1.625 -3.328125 C 1.625 -3.453125 1.578125 -3.78125 1.109375 -3.78125 C 1.390625 -4.140625 1.875 -4.25 2.1875 -4.25 C 2.6875 -4.25 3.25 -3.859375 3.25 -2.96875 L 3.25 -2.609375 C 2.734375 -2.578125 2.046875 -2.546875 1.421875 -2.25 C 0.671875 -1.90625 0.421875 -1.390625 0.421875 -0.953125 C 0.421875 -0.140625 1.390625 0.109375 2.015625 0.109375 C 2.671875 0.109375 3.125 -0.296875 3.3125 -0.75 Z M 3.25 -2.390625 L 3.25 -1.390625 C 3.25 -0.453125 2.53125 -0.109375 2.078125 -0.109375 C 1.59375 -0.109375 1.1875 -0.453125 1.1875 -0.953125 C 1.1875 -1.5 1.609375 -2.328125 3.25 -2.390625 Z M 3.25 -2.390625 "/>
</symbol>
<symbol overflow="visible" id="glyph0-14">
<path style="stroke:none;" d="M 4.140625 -3.34375 C 4.390625 -3.984375 4.90625 -3.984375 5.0625 -3.984375 L 5.0625 -4.296875 C 4.828125 -4.28125 4.546875 -4.265625 4.3125 -4.265625 C 4.140625 -4.265625 3.671875 -4.28125 3.453125 -4.296875 L 3.453125 -3.984375 C 3.765625 -3.984375 3.921875 -3.8125 3.921875 -3.5625 C 3.921875 -3.453125 3.90625 -3.4375 3.859375 -3.3125 L 2.84375 -0.875 L 1.75 -3.546875 C 1.703125 -3.65625 1.6875 -3.6875 1.6875 -3.734375 C 1.6875 -3.984375 2.046875 -3.984375 2.25 -3.984375 L 2.25 -4.296875 C 1.984375 -4.28125 1.328125 -4.265625 1.15625 -4.265625 C 0.890625 -4.265625 0.484375 -4.28125 0.1875 -4.296875 L 0.1875 -3.984375 C 0.671875 -3.984375 0.859375 -3.984375 1 -3.640625 L 2.5 0 C 2.4375 0.125 2.296875 0.453125 2.25 0.59375 C 2.03125 1.140625 1.75 1.828125 1.109375 1.828125 C 1.0625 1.828125 0.828125 1.828125 0.640625 1.640625 C 0.953125 1.609375 1.03125 1.390625 1.03125 1.21875 C 1.03125 0.96875 0.84375 0.8125 0.609375 0.8125 C 0.40625 0.8125 0.1875 0.9375 0.1875 1.234375 C 0.1875 1.6875 0.609375 2.046875 1.109375 2.046875 C 1.734375 2.046875 2.140625 1.46875 2.375 0.90625 Z M 4.140625 -3.34375 "/>
</symbol>
<symbol overflow="visible" id="glyph0-15">
<path style="stroke:none;" d="M 2.078125 -1.9375 C 2.296875 -1.890625 3.109375 -1.734375 3.109375 -1.015625 C 3.109375 -0.515625 2.765625 -0.109375 1.984375 -0.109375 C 1.140625 -0.109375 0.78125 -0.671875 0.59375 -1.53125 C 0.5625 -1.65625 0.5625 -1.6875 0.453125 -1.6875 C 0.328125 -1.6875 0.328125 -1.625 0.328125 -1.453125 L 0.328125 -0.125 C 0.328125 0.046875 0.328125 0.109375 0.4375 0.109375 C 0.484375 0.109375 0.5 0.09375 0.6875 -0.09375 C 0.703125 -0.109375 0.703125 -0.125 0.890625 -0.3125 C 1.328125 0.09375 1.78125 0.109375 1.984375 0.109375 C 3.125 0.109375 3.59375 -0.5625 3.59375 -1.28125 C 3.59375 -1.796875 3.296875 -2.109375 3.171875 -2.21875 C 2.84375 -2.546875 2.453125 -2.625 2.03125 -2.703125 C 1.46875 -2.8125 0.8125 -2.9375 0.8125 -3.515625 C 0.8125 -3.875 1.0625 -4.28125 1.921875 -4.28125 C 3.015625 -4.28125 3.078125 -3.375 3.09375 -3.078125 C 3.09375 -2.984375 3.1875 -2.984375 3.203125 -2.984375 C 3.34375 -2.984375 3.34375 -3.03125 3.34375 -3.21875 L 3.34375 -4.234375 C 3.34375 -4.390625 3.34375 -4.46875 3.234375 -4.46875 C 3.1875 -4.46875 3.15625 -4.46875 3.03125 -4.34375 C 3 -4.3125 2.90625 -4.21875 2.859375 -4.1875 C 2.484375 -4.46875 2.078125 -4.46875 1.921875 -4.46875 C 0.703125 -4.46875 0.328125 -3.796875 0.328125 -3.234375 C 0.328125 -2.890625 0.484375 -2.609375 0.75 -2.390625 C 1.078125 -2.140625 1.359375 -2.078125 2.078125 -1.9375 Z M 2.078125 -1.9375 "/>
</symbol>
<symbol overflow="visible" id="glyph0-16">
<path style="stroke:none;" d="M 2.875 -2.5 C 2.875 -3.265625 2.765625 -4.46875 2.21875 -5.609375 C 1.625 -6.828125 0.765625 -7.484375 0.671875 -7.484375 C 0.609375 -7.484375 0.5625 -7.4375 0.5625 -7.375 C 0.5625 -7.34375 0.5625 -7.328125 0.75 -7.140625 C 1.734375 -6.15625 2.296875 -4.578125 2.296875 -2.5 C 2.296875 -0.78125 1.9375 0.96875 0.703125 2.21875 C 0.5625 2.34375 0.5625 2.359375 0.5625 2.390625 C 0.5625 2.453125 0.609375 2.5 0.671875 2.5 C 0.765625 2.5 1.671875 1.8125 2.25 0.546875 C 2.765625 -0.546875 2.875 -1.65625 2.875 -2.5 Z M 2.875 -2.5 "/>
</symbol>
<symbol overflow="visible" id="glyph1-0">
<path style="stroke:none;" d=""/>
</symbol>
<symbol overflow="visible" id="glyph1-1">
<path style="stroke:none;" d="M 1.90625 -0.53125 C 1.90625 -0.8125 1.671875 -1.0625 1.390625 -1.0625 C 1.09375 -1.0625 0.859375 -0.8125 0.859375 -0.53125 C 0.859375 -0.234375 1.09375 0 1.390625 0 C 1.671875 0 1.90625 -0.234375 1.90625 -0.53125 Z M 1.90625 -0.53125 "/>
</symbol>
<symbol overflow="visible" id="glyph2-0">
<path style="stroke:none;" d=""/>
</symbol>
<symbol overflow="visible" id="glyph2-1">
<path style="stroke:none;" d="M 6.5625 -2.296875 C 6.734375 -2.296875 6.921875 -2.296875 6.921875 -2.5 C 6.921875 -2.6875 6.734375 -2.6875 6.5625 -2.6875 L 1.171875 -2.6875 C 1 -2.6875 0.828125 -2.6875 0.828125 -2.5 C 0.828125 -2.296875 1 -2.296875 1.171875 -2.296875 Z M 6.5625 -2.296875 "/>
</symbol>
<symbol overflow="visible" id="glyph3-0">
<path style="stroke:none;" d=""/>
</symbol>
<symbol overflow="visible" id="glyph3-1">
<path style="stroke:none;" d="M 3.4375 -2.390625 C 3.4375 -2.984375 3.390625 -3.578125 3.140625 -4.140625 C 2.796875 -4.859375 2.1875 -4.96875 1.859375 -4.96875 C 1.421875 -4.96875 0.875 -4.78125 0.5625 -4.078125 C 0.328125 -3.5625 0.296875 -2.984375 0.296875 -2.390625 C 0.296875 -1.828125 0.328125 -1.15625 0.625 -0.59375 C 0.953125 0.015625 1.5 0.171875 1.859375 0.171875 C 2.265625 0.171875 2.828125 0 3.15625 -0.703125 C 3.390625 -1.21875 3.4375 -1.796875 3.4375 -2.390625 Z M 1.859375 0 C 1.5625 0 1.125 -0.1875 1 -0.90625 C 0.90625 -1.359375 0.90625 -2.03125 0.90625 -2.484375 C 0.90625 -2.953125 0.90625 -3.453125 0.96875 -3.859375 C 1.109375 -4.75 1.671875 -4.8125 1.859375 -4.8125 C 2.109375 -4.8125 2.59375 -4.671875 2.734375 -3.9375 C 2.8125 -3.515625 2.8125 -2.953125 2.8125 -2.484375 C 2.8125 -1.921875 2.8125 -1.40625 2.734375 -0.9375 C 2.625 -0.21875 2.203125 0 1.859375 0 Z M 1.859375 0 "/>
</symbol>
<symbol overflow="visible" id="glyph3-2">
<path style="stroke:none;" d="M 1.4375 -0.390625 C 1.4375 -0.609375 1.25 -0.796875 1.03125 -0.796875 C 0.828125 -0.796875 0.640625 -0.609375 0.640625 -0.390625 C 0.640625 -0.171875 0.828125 0 1.03125 0 C 1.25 0 1.4375 -0.171875 1.4375 -0.390625 Z M 1.4375 -0.390625 "/>
</symbol>
<symbol overflow="visible" id="glyph3-3">
<path style="stroke:none;" d="M 2.203125 -4.78125 C 2.203125 -4.953125 2.203125 -4.96875 2.03125 -4.96875 C 1.5625 -4.5 0.90625 -4.5 0.671875 -4.5 L 0.671875 -4.265625 C 0.8125 -4.265625 1.25 -4.265625 1.640625 -4.453125 L 1.640625 -0.59375 C 1.640625 -0.328125 1.625 -0.234375 0.953125 -0.234375 L 0.703125 -0.234375 L 0.703125 0 C 0.96875 -0.015625 1.625 -0.015625 1.921875 -0.015625 C 2.21875 -0.015625 2.875 -0.015625 3.125 0 L 3.125 -0.234375 L 2.890625 -0.234375 C 2.21875 -0.234375 2.203125 -0.3125 2.203125 -0.59375 Z M 2.203125 -4.78125 "/>
</symbol>
<symbol overflow="visible" id="glyph3-4">
<path style="stroke:none;" d="M 4.578125 -4.515625 C 4.578125 -4.78125 4.59375 -4.875 5.171875 -4.875 L 5.34375 -4.875 L 5.34375 -5.09375 C 5.09375 -5.078125 4.53125 -5.078125 4.25 -5.078125 C 3.96875 -5.078125 3.40625 -5.078125 3.140625 -5.09375 L 3.140625 -4.875 L 3.328125 -4.875 C 3.90625 -4.875 3.90625 -4.78125 3.90625 -4.515625 L 3.90625 -2.765625 L 1.6875 -2.765625 L 1.6875 -4.515625 C 1.6875 -4.78125 1.703125 -4.875 2.265625 -4.875 L 2.453125 -4.875 L 2.453125 -5.09375 C 2.1875 -5.078125 1.640625 -5.078125 1.359375 -5.078125 C 1.0625 -5.078125 0.515625 -5.078125 0.25 -5.09375 L 0.25 -4.875 L 0.421875 -4.875 C 1 -4.875 1.015625 -4.78125 1.015625 -4.515625 L 1.015625 -0.578125 C 1.015625 -0.3125 1 -0.234375 0.421875 -0.234375 L 0.25 -0.234375 L 0.25 0 C 0.515625 -0.015625 1.0625 -0.015625 1.34375 -0.015625 C 1.625 -0.015625 2.1875 -0.015625 2.453125 0 L 2.453125 -0.234375 L 2.265625 -0.234375 C 1.703125 -0.234375 1.6875 -0.3125 1.6875 -0.578125 L 1.6875 -2.546875 L 3.90625 -2.546875 L 3.90625 -0.578125 C 3.90625 -0.3125 3.90625 -0.234375 3.328125 -0.234375 L 3.140625 -0.234375 L 3.140625 0 C 3.40625 -0.015625 3.953125 -0.015625 4.25 -0.015625 C 4.53125 -0.015625 5.09375 -0.015625 5.34375 0 L 5.34375 -0.234375 L 5.171875 -0.234375 C 4.59375 -0.234375 4.578125 -0.3125 4.578125 -0.578125 Z M 4.578125 -4.515625 "/>
</symbol>
<symbol overflow="visible" id="glyph3-5">
<path style="stroke:none;" d="M 2.90625 -3 C 2.984375 -3.078125 2.984375 -3.09375 2.984375 -3.125 C 2.984375 -3.21875 2.921875 -3.21875 2.78125 -3.21875 L 0.390625 -3.21875 L 0.3125 -2.015625 L 0.5 -2.015625 C 0.546875 -2.78125 0.6875 -3.0625 1.515625 -3.0625 L 2.359375 -3.0625 L 0.28125 -0.234375 C 0.203125 -0.15625 0.203125 -0.140625 0.203125 -0.109375 C 0.203125 0 0.265625 0 0.40625 0 L 2.875 0 L 3 -1.390625 L 2.8125 -1.390625 C 2.734375 -0.515625 2.578125 -0.1875 1.71875 -0.1875 L 0.84375 -0.1875 Z M 2.90625 -3 "/>
</symbol>
<symbol overflow="visible" id="glyph3-6">
<path style="stroke:none;" d="M 0.953125 -0.578125 L 1.734375 -1.34375 C 2.90625 -2.375 3.359375 -2.78125 3.359375 -3.53125 C 3.359375 -4.375 2.6875 -4.96875 1.765625 -4.96875 C 0.921875 -4.96875 0.375 -4.28125 0.375 -3.625 C 0.375 -3.203125 0.75 -3.203125 0.765625 -3.203125 C 0.890625 -3.203125 1.15625 -3.296875 1.15625 -3.59375 C 1.15625 -3.796875 1.015625 -3.984375 0.765625 -3.984375 C 0.703125 -3.984375 0.6875 -3.984375 0.671875 -3.984375 C 0.84375 -4.46875 1.234375 -4.75 1.671875 -4.75 C 2.359375 -4.75 2.671875 -4.140625 2.671875 -3.53125 C 2.671875 -2.921875 2.296875 -2.34375 1.890625 -1.875 L 0.453125 -0.28125 C 0.375 -0.1875 0.375 -0.171875 0.375 0 L 3.140625 0 L 3.359375 -1.296875 L 3.171875 -1.296875 C 3.125 -1.078125 3.078125 -0.75 3 -0.640625 C 2.953125 -0.578125 2.453125 -0.578125 2.296875 -0.578125 Z M 0.953125 -0.578125 "/>
</symbol>
<symbol overflow="visible" id="glyph3-7">
<path style="stroke:none;" d="M 2.171875 -2.625 C 2.78125 -2.828125 3.21875 -3.359375 3.21875 -3.9375 C 3.21875 -4.5625 2.546875 -4.96875 1.84375 -4.96875 C 1.078125 -4.96875 0.515625 -4.53125 0.515625 -3.953125 C 0.515625 -3.71875 0.671875 -3.5625 0.890625 -3.5625 C 1.125 -3.5625 1.28125 -3.734375 1.28125 -3.953125 C 1.28125 -4.328125 0.921875 -4.328125 0.8125 -4.328125 C 1.046875 -4.6875 1.53125 -4.78125 1.8125 -4.78125 C 2.109375 -4.78125 2.53125 -4.625 2.53125 -3.953125 C 2.53125 -3.859375 2.515625 -3.421875 2.3125 -3.09375 C 2.09375 -2.734375 1.84375 -2.71875 1.65625 -2.71875 C 1.59375 -2.703125 1.40625 -2.6875 1.359375 -2.6875 C 1.296875 -2.6875 1.25 -2.671875 1.25 -2.59375 C 1.25 -2.515625 1.296875 -2.515625 1.421875 -2.515625 L 1.75 -2.515625 C 2.375 -2.515625 2.640625 -2.015625 2.640625 -1.28125 C 2.640625 -0.265625 2.125 -0.046875 1.796875 -0.046875 C 1.484375 -0.046875 0.921875 -0.171875 0.65625 -0.609375 C 0.921875 -0.578125 1.15625 -0.734375 1.15625 -1.015625 C 1.15625 -1.296875 0.953125 -1.4375 0.734375 -1.4375 C 0.546875 -1.4375 0.3125 -1.34375 0.3125 -1.015625 C 0.3125 -0.328125 1.015625 0.171875 1.828125 0.171875 C 2.734375 0.171875 3.40625 -0.515625 3.40625 -1.28125 C 3.40625 -1.890625 2.9375 -2.46875 2.171875 -2.625 Z M 2.171875 -2.625 "/>
</symbol>
<symbol overflow="visible" id="glyph3-8">
<path style="stroke:none;" d="M 2.203125 -1.234375 L 2.203125 -0.578125 C 2.203125 -0.3125 2.1875 -0.234375 1.625 -0.234375 L 1.46875 -0.234375 L 1.46875 0 C 1.78125 -0.015625 2.171875 -0.015625 2.484375 -0.015625 C 2.796875 -0.015625 3.1875 -0.015625 3.5 0 L 3.5 -0.234375 L 3.34375 -0.234375 C 2.78125 -0.234375 2.765625 -0.3125 2.765625 -0.578125 L 2.765625 -1.234375 L 3.515625 -1.234375 L 3.515625 -1.46875 L 2.765625 -1.46875 L 2.765625 -4.859375 C 2.765625 -5.015625 2.765625 -5.0625 2.65625 -5.0625 C 2.578125 -5.0625 2.5625 -5.0625 2.5 -4.96875 L 0.203125 -1.46875 L 0.203125 -1.234375 Z M 2.234375 -1.46875 L 0.421875 -1.46875 L 2.234375 -4.25 Z M 2.234375 -1.46875 "/>
</symbol>
<symbol overflow="visible" id="glyph3-9">
<path style="stroke:none;" d="M 3.359375 -1.5 C 3.359375 -2.390625 2.734375 -3.140625 1.9375 -3.140625 C 1.578125 -3.140625 1.25 -3.015625 0.984375 -2.75 L 0.984375 -4.21875 C 1.140625 -4.171875 1.375 -4.109375 1.625 -4.109375 C 2.546875 -4.109375 3.0625 -4.796875 3.0625 -4.890625 C 3.0625 -4.9375 3.046875 -4.96875 2.984375 -4.96875 C 2.984375 -4.96875 2.96875 -4.96875 2.921875 -4.953125 C 2.78125 -4.890625 2.40625 -4.734375 1.90625 -4.734375 C 1.609375 -4.734375 1.265625 -4.78125 0.921875 -4.9375 C 0.859375 -4.96875 0.84375 -4.96875 0.828125 -4.96875 C 0.75 -4.96875 0.75 -4.90625 0.75 -4.78125 L 0.75 -2.578125 C 0.75 -2.4375 0.75 -2.375 0.859375 -2.375 C 0.90625 -2.375 0.921875 -2.40625 0.953125 -2.453125 C 1.03125 -2.5625 1.3125 -2.96875 1.921875 -2.96875 C 2.3125 -2.96875 2.5 -2.625 2.546875 -2.5 C 2.671875 -2.21875 2.6875 -1.921875 2.6875 -1.546875 C 2.6875 -1.296875 2.6875 -0.84375 2.515625 -0.53125 C 2.328125 -0.234375 2.046875 -0.046875 1.703125 -0.046875 C 1.171875 -0.046875 0.734375 -0.4375 0.609375 -0.875 C 0.640625 -0.875 0.65625 -0.859375 0.734375 -0.859375 C 0.984375 -0.859375 1.109375 -1.046875 1.109375 -1.234375 C 1.109375 -1.40625 0.984375 -1.59375 0.734375 -1.59375 C 0.640625 -1.59375 0.375 -1.546875 0.375 -1.203125 C 0.375 -0.5625 0.890625 0.171875 1.71875 0.171875 C 2.59375 0.171875 3.359375 -0.546875 3.359375 -1.5 Z M 3.359375 -1.5 "/>
</symbol>
</g>
<clipPath id="clip1">
  <path d="M 24.550781 31 L 323.433594 31 L 323.433594 204 L 24.550781 204 Z M 24.550781 31 "/>
</clipPath>
<clipPath id="clip2">
  <path d="M 24.550781 30 L 323.433594 30 L 323.433594 204 L 24.550781 204 Z M 24.550781 30 "/>
</clipPath>
<clipPath id="clip3">
  <path d="M 24.550781 25 L 323.433594 25 L 323.433594 196 L 24.550781 196 Z M 24.550781 25 "/>
</clipPath>
<clipPath id="clip4">
  <path d="M 24.550781 27 L 323.433594 27 L 323.433594 189 L 24.550781 189 Z M 24.550781 27 "/>
</clipPath>
<clipPath id="clip5">
  <path d="M 24.550781 25 L 323.433594 25 L 323.433594 184 L 24.550781 184 Z M 24.550781 25 "/>
</clipPath>
<clipPath id="clip6">
  <path d="M 332 6 L 377.640625 6 L 377.640625 57 L 332 57 Z M 332 6 "/>
</clipPath>
</defs>
<g id="surface1">
<path style="fill:none;stroke-width:0.19925;stroke-linecap:butt;stroke-linejoin:miter;stroke:rgb(50%,50%,50%);stroke-opacity:1;stroke-miterlimit:10;" d="M -0.00121875 -0.00115625 L -0.00121875 4.25275 M 49.815188 -0.00115625 L 49.815188 4.25275 M 99.627688 -0.00115625 L 99.627688 4.25275 M 149.440188 -0.00115625 L 149.440188 4.25275 M 199.256594 -0.00115625 L 199.256594 4.25275 M 249.069094 -0.00115625 L 249.069094 4.25275 M 298.881594 -0.00115625 L 298.881594 4.25275 " transform="matrix(1,0,0,-1,24.552,305.409)"/>
<path style="fill:none;stroke-width:0.19925;stroke-linecap:butt;stroke-linejoin:miter;stroke:rgb(50%,50%,50%);stroke-opacity:1;stroke-miterlimit:10;" d="M -0.00121875 -0.00115625 L 4.252688 -0.00115625 M -0.00121875 49.81525 L 4.252688 49.81525 M -0.00121875 99.62775 L 4.252688 99.62775 M -0.00121875 149.44025 L 4.252688 149.44025 M -0.00121875 199.256656 L 4.252688 199.256656 M -0.00121875 249.069156 L 4.252688 249.069156 M -0.00121875 298.881656 L 4.252688 298.881656 " transform="matrix(1,0,0,-1,24.552,305.409)"/>
<path style="fill:none;stroke-width:0.3985;stroke-linecap:butt;stroke-linejoin:miter;stroke:rgb(0%,0%,0%);stroke-opacity:1;stroke-miterlimit:10;" d="M -0.00121875 -0.00115625 L 298.881594 -0.00115625 " transform="matrix(1,0,0,-1,24.552,305.409)"/>
<path style="fill:none;stroke-width:0.3985;stroke-linecap:butt;stroke-linejoin:miter;stroke:rgb(0%,0%,0%);stroke-opacity:1;stroke-miterlimit:10;" d="M -0.00121875 -0.00115625 L -0.00121875 298.881656 " transform="matrix(1,0,0,-1,24.552,305.409)"/>
<g style="fill:rgb(0%,0%,0%);fill-opacity:1;">
  <use xlink:href="#glyph0-1" x="22.061" y="315.35"/>
</g>
<g style="fill:rgb(0%,0%,0%);fill-opacity:1;">
  <use xlink:href="#glyph0-1" x="68" y="315.35"/>
</g>
<g style="fill:rgb(0%,0%,0%);fill-opacity:1;">
  <use xlink:href="#glyph1-1" x="72.981" y="315.35"/>
</g>
<g style="fill:rgb(0%,0%,0%);fill-opacity:1;">
  <use xlink:href="#glyph0-2" x="75.749" y="315.35"/>
</g>
<g style="fill:rgb(0%,0%,0%);fill-opacity:1;">
  <use xlink:href="#glyph0-3" x="121.687" y="315.35"/>
</g>
<g style="fill:rgb(0%,0%,0%);fill-opacity:1;">
  <use xlink:href="#glyph0-3" x="167.626" y="315.35"/>
</g>
<g style="fill:rgb(0%,0%,0%);fill-opacity:1;">
  <use xlink:href="#glyph1-1" x="172.608" y="315.35"/>
</g>
<g style="fill:rgb(0%,0%,0%);fill-opacity:1;">
  <use xlink:href="#glyph0-2" x="175.375" y="315.35"/>
</g>
<g style="fill:rgb(0%,0%,0%);fill-opacity:1;">
  <use xlink:href="#glyph0-4" x="221.314" y="315.35"/>
</g>
<g style="fill:rgb(0%,0%,0%);fill-opacity:1;">
  <use xlink:href="#glyph0-4" x="267.253" y="315.35"/>
</g>
<g style="fill:rgb(0%,0%,0%);fill-opacity:1;">
  <use xlink:href="#glyph1-1" x="272.234" y="315.35"/>
</g>
<g style="fill:rgb(0%,0%,0%);fill-opacity:1;">
  <use xlink:href="#glyph0-2" x="275.001" y="315.35"/>
</g>
<g style="fill:rgb(0%,0%,0%);fill-opacity:1;">
  <use xlink:href="#glyph0-5" x="320.94" y="315.35"/>
</g>
<g style="fill:rgb(0%,0%,0%);fill-opacity:1;">
  <use xlink:href="#glyph2-1" x="3.321" y="308.204"/>
</g>
<g style="fill:rgb(0%,0%,0%);fill-opacity:1;">
  <use xlink:href="#glyph0-2" x="11.069" y="308.204"/>
  <use xlink:href="#glyph0-1" x="16.0503" y="308.204"/>
</g>
<g style="fill:rgb(0%,0%,0%);fill-opacity:1;">
  <use xlink:href="#glyph2-1" x="3.321" y="258.391"/>
</g>
<g style="fill:rgb(0%,0%,0%);fill-opacity:1;">
  <use xlink:href="#glyph0-6" x="11.069" y="258.391"/>
  <use xlink:href="#glyph0-1" x="16.0503" y="258.391"/>
</g>
<g style="fill:rgb(0%,0%,0%);fill-opacity:1;">
  <use xlink:href="#glyph2-1" x="3.321" y="208.578"/>
</g>
<g style="fill:rgb(0%,0%,0%);fill-opacity:1;">
  <use xlink:href="#glyph0-5" x="11.069" y="208.578"/>
  <use xlink:href="#glyph0-1" x="16.0503" y="208.578"/>
</g>
<g style="fill:rgb(0%,0%,0%);fill-opacity:1;">
  <use xlink:href="#glyph2-1" x="3.321" y="158.765"/>
</g>
<g style="fill:rgb(0%,0%,0%);fill-opacity:1;">
  <use xlink:href="#glyph0-4" x="11.069" y="158.765"/>
  <use xlink:href="#glyph0-1" x="16.0503" y="158.765"/>
</g>
<g style="fill:rgb(0%,0%,0%);fill-opacity:1;">
  <use xlink:href="#glyph2-1" x="3.321" y="108.952"/>
</g>
<g style="fill:rgb(0%,0%,0%);fill-opacity:1;">
  <use xlink:href="#glyph0-3" x="11.069" y="108.952"/>
  <use xlink:href="#glyph0-1" x="16.0503" y="108.952"/>
</g>
<g style="fill:rgb(0%,0%,0%);fill-opacity:1;">
  <use xlink:href="#glyph0-1" x="16.051" y="59.554"/>
</g>
<g style="fill:rgb(0%,0%,0%);fill-opacity:1;">
  <use xlink:href="#glyph0-3" x="11.069" y="9.74"/>
  <use xlink:href="#glyph0-1" x="16.0503" y="9.74"/>
</g>
<g clip-path="url(#clip1)" clip-rule="nonzero">
<path style="fill:none;stroke-width:0.3985;stroke-linecap:butt;stroke-linejoin:miter;stroke:rgb(0%,44.699097%,74.099731%);stroke-opacity:1;stroke-miterlimit:10;" d="M 2.076906 244.530094 L 3.112063 242.838687 L 4.151125 222.401187 L 5.190188 229.006656 L 6.225344 253.725406 L 7.264406 243.862125 L 8.303469 229.358219 L 9.338625 213.701969 L 10.377688 161.057437 L 11.41675 174.944156 L 12.451906 178.616031 L 13.490969 201.264469 L 14.530031 176.983219 L 15.565188 123.881656 L 16.60425 187.643375 L 17.643313 213.25275 L 18.678469 211.049625 L 19.717531 204.776187 L 20.756594 187.737125 L 21.79175 194.00275 L 22.830813 192.463687 L 23.869875 212.225406 L 24.905031 184.045719 L 25.944094 190.858219 L 26.983156 190.284 L 28.022219 195.850406 L 29.057375 184.459781 L 30.096438 172.123844 L 31.1355 158.354312 L 32.170656 107.276187 L 33.209719 156.776187 L 34.248781 200.205875 L 35.283938 194.530094 L 36.323 194.19025 L 37.362063 197.045719 L 38.397219 172.205875 L 39.436281 178.291812 L 40.475344 196.807437 L 41.5105 172.014469 L 42.549563 188.858219 L 43.588625 199.00275 L 44.623781 233.291812 L 45.662844 244.424625 L 46.701906 252.959781 L 47.737063 251.5965 L 48.776125 243.866031 L 49.815188 246.006656 L 50.850344 242.272281 L 51.889406 239.205875 L 52.928469 235.092594 L 53.963625 248.323062 L 55.002688 255.518375 L 56.04175 251.955875 L 57.076906 226.119937 L 58.115969 222.881656 L 59.155031 247.416812 L 60.190188 251.487125 L 61.22925 252.233219 L 62.268313 255.518375 L 63.303469 256.549625 L 64.342531 255.662906 L 65.381594 242.080875 L 66.41675 249.073062 L 67.455813 250.119937 L 68.494875 233.385562 L 69.530031 230.936344 L 70.569094 250.94025 L 71.608156 243.19025 L 72.643313 243.5965 L 73.682375 245.057437 L 74.721438 243.522281 L 75.756594 237.100406 L 76.795656 239.975406 L 77.834719 251.916812 L 78.873781 252.334781 L 79.908938 251.018375 L 80.948 250.260562 L 81.987063 252.885562 L 83.022219 243.506656 L 84.061281 243.389469 L 85.100344 245.209781 L 86.1355 243.041812 L 87.174563 253.834781 L 88.213625 256.155094 L 89.248781 249.241031 L 90.287844 249.026187 L 91.326906 245.451969 L 92.362063 242.944156 L 93.401125 248.682437 L 94.440188 242.834781 L 95.475344 244.366031 L 96.514406 224.647281 L 97.553469 247.635562 L 98.588625 259.12775 L 99.627688 253.284 L 100.66675 246.455875 L 101.701906 248.701969 L 102.740969 250.108219 L 103.780031 249.553531 L 104.815188 231.116031 L 106.893313 216.479312 L 107.928469 231.616031 L 108.967531 243.873844 L 110.006594 244.854312 L 111.04175 233.975406 L 112.080813 229.350406 L 113.119875 245.018375 L 114.155031 250.87775 L 115.194094 252.75275 L 116.233156 239.334781 L 117.268313 220.178531 L 118.307375 209.600406 L 119.346438 176.897281 L 120.381594 177.061344 L 121.420656 208.518375 L 122.459719 195.389469 L 123.494875 224.651187 L 124.533938 226.553531 L 125.573 228.057437 L 126.612063 219.963687 L 127.647219 162.2215 L 128.686281 162.881656 L 129.725344 155.674625 L 130.7605 140.354312 L 131.799563 154.850406 L 132.838625 171.436344 L 133.873781 158.881656 L 134.912844 152.483219 L 135.951906 195.494937 L 136.987063 194.385562 L 138.026125 189.666812 L 139.065188 189.155094 L 140.100344 206.229312 L 141.139406 197.209781 L 143.213625 140.5965 L 144.252688 181.530094 L 145.29175 233.514469 L 146.326906 243.330875 L 147.365969 235.491031 L 148.405031 243.295719 L 149.440188 238.311344 L 150.47925 219.737125 L 151.518313 229.112125 L 152.553469 249.342594 L 153.592531 254.049625 L 154.631594 257.873844 L 155.66675 257.987125 L 156.705813 249.092594 L 157.744875 249.491031 L 158.780031 224.510562 L 159.819094 224.448062 L 160.858156 247.12775 L 161.893313 231.994937 L 162.932375 224.8465 L 163.971438 246.963687 L 165.006594 252.534 L 166.045656 242.608219 L 167.084719 237.600406 L 168.119875 233.748844 L 169.158938 238.280094 L 170.198 241.522281 L 171.233156 231.592594 L 172.272219 232.5965 L 173.311281 229.037906 L 174.350344 233.147281 L 175.3855 226.635562 L 176.424563 217.979312 L 177.463625 238.866031 L 178.498781 236.170719 L 179.537844 218.260562 L 180.576906 226.862125 L 181.612063 222.557437 L 182.651125 234.9715 L 183.690188 246.412906 L 184.725344 219.326969 L 185.764406 195.026187 L 186.803469 202.217594 L 187.838625 190.459781 L 188.877688 210.412906 L 189.91675 232.967594 L 190.951906 220.022281 L 191.990969 199.518375 L 193.030031 202.303531 L 194.065188 222.81525 L 195.10425 241.916812 L 196.143313 246.569156 L 197.178469 240.885562 L 198.217531 226.159 L 199.256594 225.330875 L 200.29175 235.026187 L 201.330813 238.369937 L 202.369875 234.760562 L 203.405031 218.030094 L 204.444094 205.147281 L 205.483156 240.342594 L 206.518313 258.330875 L 207.557375 250.869937 L 208.596438 240.139469 L 209.631594 232.448062 L 210.670656 206.381656 L 211.709719 152.905094 L 212.744875 196.19025 L 213.783938 208.705875 L 214.823 178.084781 L 215.858156 215.366031 L 216.897219 215.049625 L 217.936281 168.393375 L 218.971438 172.936344 L 220.0105 147.737125 L 221.049563 130.31525 L 222.088625 171.463687 L 223.123781 181.201969 L 224.162844 141.666812 L 225.201906 150.659 L 226.237063 169.764469 L 227.276125 139.69025 L 228.315188 186.455875 L 229.350344 191.467594 L 230.389406 178.682437 L 231.428469 209.604312 L 232.463625 188.104312 L 233.502688 195.155094 L 235.576906 185.936344 L 236.615969 193.256656 L 237.655031 157.5965 L 238.690188 146.7215 L 239.72925 159.526187 L 240.768313 176.432437 L 241.803469 156.866031 L 242.842531 160.662906 L 243.881594 182.924625 L 244.91675 188.983219 L 245.955813 237.50275 L 246.994875 244.170719 L 248.030031 238.823062 L 249.069094 237.416812 L 250.108156 221.909 L 251.143313 230.201969 L 252.182375 254.428531 L 253.221438 261.655094 L 254.256594 258.2215 L 255.295656 259.143375 L 256.334719 255.268375 L 257.369875 239.217594 L 258.408937 217.076969 L 259.448 237.014469 L 260.483156 248.135562 L 261.522219 245.330875 L 262.561281 228.194156 L 263.596437 216.838687 L 264.6355 240.010562 L 265.674562 257.811344 L 266.709719 262.588687 L 267.748781 268.397281 L 268.787844 264.834781 L 269.826906 244.643375 L 270.862062 211.108219 L 271.901125 226.975406 L 272.940187 241.733219 L 273.975344 240.643375 L 275.014406 246.862125 L 276.053469 239.549625 L 277.088625 235.034 L 278.127687 244.963687 L 279.16675 258.694156 L 280.201906 265.768375 L 281.240969 265.06525 L 282.280031 261.701969 L 284.35425 231.991031 L 285.393312 234.424625 L 286.428469 245.088687 L 287.467531 248.264469 L 288.506594 250.858219 L 289.54175 241.209781 L 290.580812 249.366031 L 291.619875 258.733219 L 292.655031 257.889469 L 293.694094 257.920719 L 294.733156 252.553531 L 295.768312 253.233219 L 296.807375 249.854312 " transform="matrix(1,0,0,-1,24.552,305.409)"/>
</g>
<g clip-path="url(#clip2)" clip-rule="nonzero">
<path style="fill:none;stroke-width:0.3985;stroke-linecap:butt;stroke-linejoin:miter;stroke:rgb(84.999084%,32.499695%,9.799194%);stroke-opacity:1;stroke-miterlimit:10;" d="M 2.076906 243.436344 L 3.112063 237.811344 L 4.151125 219.030094 L 5.190188 231.854312 L 6.225344 255.659 L 7.264406 247.975406 L 8.303469 226.100406 L 9.338625 198.182437 L 10.377688 152.963687 L 11.41675 172.119937 L 12.451906 179.514469 L 13.490969 198.178531 L 14.530031 175.104312 L 15.565188 123.834781 L 16.60425 172.784 L 17.643313 199.326969 L 18.678469 190.791812 L 20.756594 184.201969 L 21.79175 196.311344 L 22.830813 186.8465 L 23.869875 204.987125 L 24.905031 178.092594 L 25.944094 156.998844 L 26.983156 179.741031 L 28.022219 212.045719 L 29.057375 199.592594 L 30.096438 143.155094 L 31.1355 119.405094 L 32.170656 107.409 L 34.248781 189.729312 L 35.283938 184.588687 L 36.323 175.936344 L 37.362063 182.088687 L 38.397219 196.475406 L 39.436281 197.987125 L 40.475344 190.967594 L 41.5105 167.080875 L 42.549563 191.850406 L 43.588625 199.448062 L 44.623781 228.092594 L 45.662844 238.061344 L 46.701906 255.713687 L 47.737063 252.178531 L 48.776125 237.424625 L 49.815188 240.256656 L 50.850344 237.393375 L 51.889406 229.350406 L 52.928469 223.494937 L 53.963625 247.522281 L 55.002688 251.592594 L 56.04175 247.998844 L 57.076906 228.237125 L 58.115969 235.748844 L 59.155031 261.069156 L 60.190188 266.022281 L 61.22925 265.272281 L 62.268313 267.991031 L 63.303469 264.100406 L 64.342531 261.014469 L 65.381594 243.108219 L 66.41675 240.201969 L 67.455813 240.826969 L 68.494875 225.287906 L 69.530031 225.75275 L 70.569094 248.705875 L 71.608156 241.037906 L 73.682375 243.955875 L 74.721438 238.276187 L 75.756594 234.455875 L 76.795656 243.924625 L 77.834719 256.205875 L 78.873781 256.823062 L 79.908938 247.768375 L 80.948 261.920719 L 81.987063 268.416812 L 83.022219 253.3465 L 84.061281 240.94025 L 85.100344 241.698062 L 86.1355 244.069156 L 87.174563 256.467594 L 88.213625 259.7215 L 89.248781 248.905094 L 90.287844 246.205875 L 91.326906 246.635562 L 92.362063 245.737125 L 93.401125 247.307437 L 94.440188 241.487125 L 95.475344 244.909 L 96.514406 222.799625 L 97.553469 247.229312 L 98.588625 262.2215 L 99.627688 261.924625 L 100.66675 252.073062 L 101.701906 256.510562 L 102.740969 251.948062 L 103.780031 240.916812 L 104.815188 219.795719 L 105.85425 210.826969 L 106.893313 203.0965 L 107.928469 220.241031 L 108.967531 230.19025 L 110.006594 226.600406 L 111.04175 212.326969 L 112.080813 211.932437 L 113.119875 237.5965 L 114.155031 257.631656 L 115.194094 263.319156 L 116.233156 248.018375 L 117.268313 224.205875 L 118.307375 211.733219 L 119.346438 179.850406 L 120.381594 184.850406 L 121.420656 217.7215 L 122.459719 199.760562 L 123.494875 215.467594 L 124.533938 219.00275 L 125.573 222.213687 L 126.612063 219.225406 L 127.647219 164.713687 L 128.686281 162.057437 L 129.725344 155.362125 L 130.7605 145.424625 L 131.799563 141.842594 L 132.838625 141.073062 L 133.873781 143.924625 L 134.912844 147.037906 L 135.951906 186.198062 L 136.987063 186.369937 L 138.026125 162.170719 L 139.065188 163.537906 L 140.100344 194.526187 L 141.139406 192.385562 L 142.178469 183.604312 L 143.213625 143.358219 L 144.252688 173.866031 L 145.29175 235.401187 L 146.326906 246.330875 L 147.365969 232.174625 L 148.405031 246.451969 L 149.440188 237.795719 L 150.47925 218.975406 L 151.518313 235.131656 L 152.553469 250.041812 L 153.592531 250.463687 L 154.631594 260.912906 L 155.66675 259.354312 L 156.705813 253.979312 L 157.744875 257.491031 L 158.780031 227.983219 L 159.819094 213.244937 L 160.858156 236.530094 L 161.893313 227.057437 L 162.932375 223.561344 L 163.971438 253.350406 L 165.006594 261.830875 L 166.045656 242.830875 L 167.084719 231.494937 L 168.119875 231.307437 L 169.158938 232.522281 L 170.198 239.791812 L 171.233156 224.826969 L 172.272219 220.569156 L 173.311281 219.87775 L 174.350344 224.12775 L 175.3855 212.518375 L 176.424563 205.31525 L 177.463625 230.75275 L 178.498781 229.842594 L 179.537844 209.744937 L 180.576906 218.229312 L 181.612063 219.420719 L 182.651125 232.776187 L 183.690188 248.576969 L 184.725344 226.81525 L 185.764406 185.557437 L 186.803469 185.659 L 187.838625 173.280094 L 189.91675 221.00275 L 190.951906 209.514469 L 191.990969 188.412906 L 193.030031 185.756656 L 194.065188 221.545719 L 195.10425 244.112125 L 196.143313 245.772281 L 197.178469 235.811344 L 198.217531 223.491031 L 199.256594 226.444156 L 200.29175 239.951969 L 201.330813 239.448062 L 202.369875 226.381656 L 203.405031 206.678531 L 204.444094 198.205875 L 205.483156 240.073062 L 206.518313 256.057437 L 207.557375 251.623844 L 208.596438 236.276187 L 209.631594 222.920719 L 210.670656 196.748844 L 211.709719 155.393375 L 212.744875 202.178531 L 213.783938 213.080875 L 214.823 182.451969 L 215.858156 226.159 L 216.897219 227.436344 L 217.936281 173.319156 L 218.971438 160.748844 L 220.0105 134.811344 L 221.049563 162.666812 L 222.088625 178.651187 L 223.123781 166.186344 L 224.162844 131.076969 L 225.201906 123.897281 L 226.237063 141.12775 L 227.276125 132.9715 L 228.315188 183.170719 L 229.350344 187.991031 L 230.389406 169.998844 L 231.428469 198.424625 L 232.463625 184.119937 L 233.502688 214.760562 L 234.54175 205.389469 L 235.576906 175.385562 L 236.615969 176.037906 L 237.655031 133.569156 L 238.690188 127.123844 L 239.72925 148.291812 L 240.768313 167.616031 L 241.803469 148.19025 L 242.842531 147.588687 L 243.881594 160.31525 L 244.91675 185.342594 L 245.955813 243.616031 L 246.994875 253.807437 L 248.030031 246.034 L 249.069094 241.108219 L 250.108156 222.295719 L 251.143313 229.893375 L 252.182375 252.799625 L 253.221438 258.3465 L 254.256594 252.088687 L 255.295656 259.276187 L 256.334719 255.979312 L 258.408937 216.483219 L 259.448 233.25275 L 260.483156 247.401187 L 261.522219 245.057437 L 262.561281 222.725406 L 263.596437 219.733219 L 264.6355 251.619937 L 265.674562 259.674625 L 266.709719 261.725406 L 267.748781 269.385562 L 268.787844 267.237125 L 269.826906 246.592594 L 270.862062 210.776187 L 271.901125 220.342594 L 272.940187 232.526187 L 273.975344 235.936344 L 275.014406 245.334781 L 276.053469 240.448062 L 277.088625 238.764469 L 278.127687 246.698062 L 279.16675 260.076969 L 280.201906 264.737125 L 281.240969 267.916812 L 282.280031 260.854312 L 283.315187 241.311344 L 284.35425 226.139469 L 285.393312 234.670719 L 286.428469 244.405094 L 287.467531 247.201969 L 288.506594 251.268375 L 289.54175 240.631656 L 290.580812 245.569156 L 291.619875 258.811344 L 292.655031 255.432437 L 293.694094 253.451969 L 294.733156 250.291812 L 295.768312 247.959781 L 296.807375 242.787906 " transform="matrix(1,0,0,-1,24.552,305.409)"/>
</g>
<g clip-path="url(#clip3)" clip-rule="nonzero">
<path style="fill:none;stroke-width:0.3985;stroke-linecap:butt;stroke-linejoin:miter;stroke:rgb(92.89856%,69.398499%,12.5%);stroke-opacity:1;stroke-miterlimit:10;" d="M 2.076906 244.280094 L 3.112063 233.170719 L 4.151125 216.116031 L 6.225344 255.842594 L 7.264406 245.284 L 8.303469 229.791812 L 9.338625 202.647281 L 10.377688 155.147281 L 11.41675 181.401187 L 12.451906 178.998844 L 13.490969 191.381656 L 14.530031 172.807437 L 15.565188 135.764469 L 16.60425 172.803531 L 17.643313 194.405094 L 18.678469 184.834781 L 19.717531 187.869937 L 20.756594 185.580875 L 21.79175 161.483219 L 22.830813 178.194156 L 23.869875 199.061344 L 24.905031 172.9715 L 25.944094 176.037906 L 26.983156 190.014469 L 28.022219 211.686344 L 29.057375 194.451969 L 30.096438 151.147281 L 31.1355 138.784 L 32.170656 115.643375 L 33.209719 135.131656 L 34.248781 161.670719 L 35.283938 161.588687 L 36.323 171.248844 L 37.362063 173.034 L 38.397219 151.112125 L 39.436281 161.514469 L 40.475344 175.162906 L 41.5105 162.006656 L 42.549563 187.50275 L 43.588625 200.530094 L 44.623781 224.686344 L 45.662844 240.155094 L 46.701906 261.608219 L 47.737063 254.131656 L 48.776125 244.373844 L 49.815188 241.244937 L 50.850344 239.912906 L 51.889406 232.428531 L 52.928469 219.733219 L 53.963625 241.576969 L 55.002688 247.307437 L 56.04175 242.256656 L 57.076906 225.616031 L 58.115969 239.041812 L 59.155031 263.237125 L 60.190188 265.530094 L 61.22925 262.959781 L 62.268313 265.666812 L 63.303469 269.069156 L 64.342531 262.545719 L 65.381594 241.151187 L 66.41675 237.784 L 67.455813 241.666812 L 68.494875 223.748844 L 69.530031 226.405094 L 70.569094 244.494937 L 71.608156 233.010562 L 72.643313 238.119937 L 73.682375 240.248844 L 74.721438 236.534 L 75.756594 231.182437 L 76.795656 236.741031 L 77.834719 259.643375 L 78.873781 258.744937 L 79.908938 247.881656 L 80.948 260.784 L 81.987063 266.268375 L 83.022219 254.561344 L 84.061281 238.866031 L 85.100344 236.166812 L 86.1355 240.799625 L 87.174563 251.881656 L 88.213625 254.534 L 89.248781 246.12775 L 90.287844 247.342594 L 91.326906 246.182437 L 92.362063 242.760562 L 93.401125 244.084781 L 95.475344 232.592594 L 96.514406 222.170719 L 97.553469 252.4715 L 98.588625 263.666812 L 99.627688 264.25275 L 100.66675 251.010562 L 101.701906 249.248844 L 102.740969 246.12775 L 103.780031 238.659 L 104.815188 213.56525 L 105.85425 199.424625 L 106.893313 196.44025 L 107.928469 214.912906 L 108.967531 228.104312 L 110.006594 221.307437 L 111.04175 203.862125 L 112.080813 205.256656 L 113.119875 236.670719 L 114.155031 260.608219 L 115.194094 268.487125 L 116.233156 252.436344 L 117.268313 223.772281 L 118.307375 215.842594 L 119.346438 186.561344 L 120.381594 166.198062 L 121.420656 195.444156 L 122.459719 193.526187 L 123.494875 232.807437 L 124.533938 231.573062 L 125.573 219.854312 L 126.612063 217.06525 L 127.647219 164.069156 L 128.686281 161.104312 L 129.725344 155.045719 L 130.7605 139.182437 L 131.799563 135.534 L 132.838625 137.487125 L 133.873781 137.100406 L 134.912844 148.643375 L 135.951906 189.432437 L 136.987063 190.030094 L 138.026125 182.553531 L 139.065188 179.487125 L 140.100344 176.616031 L 141.139406 176.448062 L 142.178469 183.174625 L 143.213625 171.100406 L 144.252688 176.06525 L 145.29175 236.319156 L 146.326906 249.494937 L 147.365969 236.584781 L 148.405031 245.526187 L 149.440188 238.225406 L 150.47925 216.604312 L 151.518313 239.256656 L 152.553469 252.494937 L 153.592531 254.991031 L 154.631594 261.373844 L 155.66675 261.225406 L 156.705813 257.182437 L 157.744875 260.069156 L 158.780031 227.795719 L 159.819094 215.772281 L 160.858156 243.159 L 161.893313 230.401187 L 162.932375 220.19025 L 163.971438 254.182437 L 165.006594 263.174625 L 166.045656 245.166812 L 167.084719 232.889469 L 168.119875 234.467594 L 169.158938 230.623844 L 170.198 237.912906 L 171.233156 226.237125 L 172.272219 226.155094 L 173.311281 217.709781 L 174.350344 219.670719 L 175.3855 214.31525 L 176.424563 209.639469 L 177.463625 240.311344 L 178.498781 238.959781 L 179.537844 208.463687 L 180.576906 212.420719 L 181.612063 220.854312 L 182.651125 224.4715 L 183.690188 239.979312 L 184.725344 220.112125 L 185.764406 190.869937 L 186.803469 185.854312 L 187.838625 171.666812 L 188.877688 200.088687 L 189.91675 230.432437 L 190.951906 219.119937 L 191.990969 190.600406 L 193.030031 185.444156 L 194.065188 214.87775 L 195.10425 238.866031 L 196.143313 241.948062 L 197.178469 242.459781 L 198.217531 225.803531 L 199.256594 217.494937 L 200.29175 236.8465 L 201.330813 237.959781 L 202.369875 225.264469 L 203.405031 204.784 L 204.444094 196.709781 L 205.483156 243.975406 L 206.518313 263.010562 L 207.557375 252.951969 L 208.596438 237.963687 L 209.631594 225.323062 L 210.670656 192.436344 L 211.709719 162.037906 L 212.744875 195.619937 L 213.783938 203.045719 L 214.823 171.94025 L 215.858156 206.756656 L 216.897219 207.924625 L 217.936281 166.268375 L 218.971438 176.147281 L 220.0105 152.541812 L 221.049563 173.733219 L 222.088625 188.088687 L 223.123781 172.608219 L 224.162844 137.967594 L 225.201906 146.643375 L 226.237063 164.760562 L 227.276125 137.479312 L 228.315188 164.428531 L 229.350344 168.905094 L 230.389406 171.014469 L 231.428469 199.881656 L 232.463625 185.869937 L 233.502688 211.291812 L 234.54175 201.580875 L 235.576906 186.244937 L 236.615969 200.073062 L 237.655031 167.842594 L 238.690188 171.647281 L 239.72925 184.233219 L 240.768313 171.409 L 241.803469 151.166812 L 242.842531 145.412906 L 243.881594 157.975406 L 244.91675 188.534 L 245.955813 243.241031 L 246.994875 251.151187 L 248.030031 239.772281 L 249.069094 241.924625 L 250.108156 224.272281 L 251.143313 226.733219 L 252.182375 248.424625 L 253.221438 253.248844 L 254.256594 247.170719 L 255.295656 255.194156 L 256.334719 256.936344 L 257.369875 242.553531 L 258.408937 216.237125 L 260.483156 247.311344 L 261.522219 246.022281 L 262.561281 223.776187 L 263.596437 224.522281 L 264.6355 256.991031 L 265.674562 264.19025 L 266.709719 262.299625 L 267.748781 273.401187 L 268.787844 274.182437 L 269.826906 249.049625 L 270.862062 214.198062 L 271.901125 209.25275 L 272.940187 226.014469 L 273.975344 234.600406 L 275.014406 244.026187 L 276.053469 241.334781 L 277.088625 238.428531 L 278.127687 240.159 L 279.16675 259.897281 L 280.201906 268.916812 L 281.240969 268.225406 L 282.280031 261.061344 L 283.315187 243.9715 L 284.35425 233.491031 L 285.393312 236.209781 L 286.428469 251.639469 L 287.467531 253.795719 L 288.506594 251.260562 L 289.54175 230.983219 L 290.580812 233.873844 L 291.619875 252.5965 L 293.694094 248.678531 L 294.733156 255.885562 L 295.768312 251.991031 L 296.807375 242.87775 " transform="matrix(1,0,0,-1,24.552,305.409)"/>
</g>
<g clip-path="url(#clip4)" clip-rule="nonzero">
<path style="fill:none;stroke-width:0.3985;stroke-linecap:butt;stroke-linejoin:miter;stroke:rgb(49.398804%,18.399048%,55.599976%);stroke-opacity:1;stroke-miterlimit:10;" d="M 2.076906 244.784 L 3.112063 234.682437 L 4.151125 220.780094 L 5.190188 232.475406 L 6.225344 253.080875 L 7.264406 244.424625 L 8.303469 223.3465 L 9.338625 197.014469 L 10.377688 147.838687 L 11.41675 167.920719 L 12.451906 182.850406 L 13.490969 204.116031 L 14.530031 179.803531 L 15.565188 132.342594 L 16.60425 181.135562 L 17.643313 199.455875 L 18.678469 173.237125 L 19.717531 172.131656 L 20.756594 170.010562 L 21.79175 174.889469 L 22.830813 190.600406 L 23.869875 215.080875 L 25.944094 160.81525 L 26.983156 174.959781 L 28.022219 199.659 L 30.096438 169.291812 L 31.1355 155.280094 L 32.170656 122.342594 L 33.209719 132.834781 L 34.248781 159.858219 L 35.283938 160.701969 L 36.323 165.369937 L 37.362063 161.799625 L 38.397219 164.514469 L 39.436281 167.959781 L 40.475344 158.291812 L 41.5105 151.569156 L 42.549563 179.186344 L 43.588625 211.436344 L 44.623781 235.631656 L 45.662844 245.401187 L 46.701906 258.576969 L 47.737063 251.467594 L 48.776125 238.866031 L 49.815188 241.784 L 50.850344 233.264469 L 51.889406 221.537906 L 52.928469 216.381656 L 53.963625 244.069156 L 55.002688 251.709781 L 56.04175 248.979312 L 57.076906 230.811344 L 58.115969 243.276187 L 59.155031 270.651187 L 60.190188 271.975406 L 61.22925 265.979312 L 62.268313 268.323062 L 63.303469 266.682437 L 64.342531 261.311344 L 65.381594 243.81525 L 66.41675 243.010562 L 67.455813 245.299625 L 68.494875 222.866031 L 69.530031 222.694156 L 70.569094 243.791812 L 71.608156 237.709781 L 72.643313 247.498844 L 73.682375 243.631656 L 74.721438 238.100406 L 75.756594 230.174625 L 76.795656 234.354312 L 77.834719 253.06525 L 78.873781 254.50275 L 79.908938 244.807437 L 80.948 256.287906 L 81.987063 265.850406 L 83.022219 252.694156 L 84.061281 236.932437 L 85.100344 236.416812 L 86.1355 238.959781 L 87.174563 251.260562 L 88.213625 255.205875 L 89.248781 241.916812 L 90.287844 244.030094 L 91.326906 243.534 L 92.362063 239.741031 L 93.401125 239.951969 L 94.440188 234.162906 L 95.475344 229.780094 L 96.514406 212.0965 L 97.553469 246.393375 L 98.588625 263.444156 L 99.627688 262.764469 L 100.66675 249.928531 L 101.701906 252.655094 L 102.740969 251.084781 L 103.780031 241.998844 L 104.815188 212.655094 L 105.85425 199.713687 L 106.893313 196.088687 L 107.928469 226.119937 L 108.967531 234.256656 L 110.006594 217.897281 L 111.04175 197.393375 L 112.080813 203.670719 L 113.119875 235.022281 L 114.155031 257.256656 L 115.194094 265.694156 L 116.233156 248.338687 L 117.268313 220.424625 L 118.307375 208.826969 L 119.346438 182.467594 L 120.381594 188.244937 L 121.420656 218.018375 L 122.459719 199.916812 L 123.494875 225.670719 L 124.533938 224.784 L 125.573 230.795719 L 126.612063 228.600406 L 127.647219 175.291812 L 128.686281 187.545719 L 129.725344 178.967594 L 130.7605 133.248844 L 131.799563 141.784 L 132.838625 159.983219 L 133.873781 151.272281 L 134.912844 153.487125 L 135.951906 198.432437 L 136.987063 197.670719 L 138.026125 173.881656 L 139.065188 179.881656 L 140.100344 201.108219 L 141.139406 202.385562 L 142.178469 205.717594 L 143.213625 178.334781 L 144.252688 175.694156 L 145.29175 236.358219 L 146.326906 249.662906 L 147.365969 233.795719 L 148.405031 243.451969 L 149.440188 238.147281 L 150.47925 221.823062 L 151.518313 238.639469 L 152.553469 253.741031 L 153.592531 254.787906 L 154.631594 265.225406 L 155.66675 266.237125 L 156.705813 257.666812 L 157.744875 260.612125 L 158.780031 229.5965 L 159.819094 210.229312 L 160.858156 236.69025 L 161.893313 226.19025 L 162.932375 219.885562 L 163.971438 255.909 L 165.006594 257.030094 L 166.045656 237.776187 L 167.084719 231.401187 L 168.119875 229.75275 L 169.158938 231.62775 L 170.198 241.194156 L 171.233156 228.229312 L 172.272219 228.284 L 174.350344 219.776187 L 175.3855 214.557437 L 176.424563 210.69025 L 177.463625 234.854312 L 178.498781 230.955875 L 179.537844 203.143375 L 180.576906 200.729312 L 181.612063 209.143375 L 182.651125 225.772281 L 183.690188 245.69025 L 184.725344 222.912906 L 185.764406 182.299625 L 186.803469 177.850406 L 187.838625 169.178531 L 188.877688 202.451969 L 189.91675 230.5965 L 190.951906 215.807437 L 191.990969 178.256656 L 193.030031 181.576969 L 194.065188 215.7215 L 195.10425 242.455875 L 196.143313 244.580875 L 197.178469 242.561344 L 198.217531 224.760562 L 199.256594 215.662906 L 200.29175 240.155094 L 201.330813 239.850406 L 202.369875 224.975406 L 203.405031 203.576969 L 204.444094 194.506656 L 205.483156 243.998844 L 206.518313 260.334781 L 207.557375 246.959781 L 208.596438 228.951969 L 209.631594 214.893375 L 210.670656 184.741031 L 211.709719 163.936344 L 212.744875 198.264469 L 213.783938 203.741031 L 214.823 170.580875 L 215.858156 206.768375 L 216.897219 208.030094 L 217.936281 160.838687 L 218.971438 167.830875 L 220.0105 145.932437 L 221.049563 156.088687 L 222.088625 173.8465 L 223.123781 173.666812 L 224.162844 143.409 L 225.201906 152.373844 L 226.237063 170.307437 L 227.276125 144.350406 L 228.315188 162.287906 L 229.350344 164.948062 L 230.389406 186.873844 L 231.428469 216.725406 L 232.463625 195.912906 L 233.502688 191.830875 L 234.54175 185.834781 L 235.576906 195.897281 L 236.615969 200.338687 L 237.655031 165.588687 L 238.690188 157.850406 L 239.72925 167.909 L 240.768313 147.901187 L 241.803469 131.264469 L 242.842531 150.780094 L 243.881594 173.412906 L 244.91675 187.323062 L 245.955813 241.553531 L 246.994875 248.123844 L 248.030031 243.838687 L 249.069094 246.612125 L 250.108156 227.670719 L 251.143313 223.510562 L 252.182375 246.319156 L 253.221438 253.768375 L 254.256594 250.092594 L 255.295656 261.186344 L 256.334719 255.432437 L 257.369875 239.659 L 258.408937 216.573062 L 259.448 234.776187 L 260.483156 249.682437 L 261.522219 246.643375 L 262.561281 220.635562 L 263.596437 229.823062 L 264.6355 260.19025 L 265.674562 262.080875 L 266.709719 259.635562 L 267.748781 268.983219 L 268.787844 264.655094 L 269.826906 245.838687 L 270.862062 214.159 L 271.901125 225.151187 L 272.940187 233.912906 L 273.975344 236.284 L 275.014406 242.506656 L 276.053469 241.053531 L 277.088625 241.06525 L 278.127687 244.260562 L 279.16675 261.436344 L 280.201906 265.561344 L 281.240969 268.467594 L 282.280031 263.682437 L 283.315187 248.534 L 284.35425 232.057437 L 285.393312 240.553531 L 286.428469 255.049625 L 287.467531 253.608219 L 288.506594 253.119937 L 289.54175 243.795719 L 290.580812 249.467594 L 291.619875 259.866031 L 292.655031 257.018375 L 293.694094 253.057437 L 294.733156 251.014469 L 295.768312 248.229312 L 296.807375 241.084781 " transform="matrix(1,0,0,-1,24.552,305.409)"/>
</g>
<g clip-path="url(#clip5)" clip-rule="nonzero">
<path style="fill:none;stroke-width:0.3985;stroke-linecap:butt;stroke-linejoin:miter;stroke:rgb(46.598816%,67.399597%,18.798828%);stroke-opacity:1;stroke-miterlimit:10;" d="M 2.076906 241.647281 L 3.112063 232.518375 L 4.151125 216.44025 L 5.190188 234.084781 L 6.225344 253.416812 L 7.264406 244.561344 L 8.303469 224.31525 L 9.338625 198.69025 L 10.377688 145.701969 L 11.41675 165.076969 L 12.451906 175.256656 L 13.490969 188.44025 L 14.530031 166.205875 L 15.565188 127.272281 L 16.60425 175.381656 L 17.643313 196.701969 L 18.678469 180.326969 L 19.717531 204.389469 L 20.756594 207.053531 L 21.79175 173.432437 L 22.830813 191.979312 L 23.869875 214.9715 L 25.944094 162.295719 L 26.983156 176.682437 L 28.022219 209.100406 L 29.057375 198.75275 L 30.096438 195.061344 L 31.1355 180.491031 L 32.170656 127.088687 L 33.209719 143.522281 L 34.248781 185.3465 L 35.283938 182.143375 L 36.323 160.998844 L 37.362063 147.713687 L 39.436281 159.569156 L 40.475344 158.916812 L 41.5105 157.069156 L 42.549563 189.916812 L 43.588625 200.25275 L 44.623781 223.069156 L 45.662844 238.307437 L 46.701906 258.092594 L 47.737063 250.401187 L 48.776125 239.955875 L 49.815188 242.381656 L 50.850344 230.37775 L 51.889406 219.272281 L 52.928469 217.623844 L 53.963625 244.975406 L 55.002688 253.682437 L 56.04175 246.362125 L 57.076906 227.893375 L 58.115969 242.342594 L 59.155031 271.592594 L 60.190188 274.545719 L 61.22925 269.655094 L 62.268313 269.768375 L 63.303469 266.787906 L 64.342531 256.276187 L 65.381594 243.588687 L 66.41675 240.338687 L 67.455813 247.561344 L 68.494875 227.198062 L 69.530031 226.451969 L 70.569094 246.459781 L 71.608156 235.213687 L 72.643313 242.018375 L 73.682375 244.213687 L 74.721438 242.037906 L 75.756594 234.053531 L 76.795656 235.635562 L 77.834719 250.948062 L 78.873781 251.182437 L 79.908938 244.041812 L 80.948 255.623844 L 81.987063 264.823062 L 83.022219 252.741031 L 84.061281 234.369937 L 85.100344 239.686344 L 86.1355 238.576969 L 87.174563 251.807437 L 88.213625 255.428531 L 89.248781 246.588687 L 90.287844 247.323062 L 91.326906 245.295719 L 92.362063 235.9715 L 93.401125 237.405094 L 94.440188 234.182437 L 95.475344 234.737125 L 96.514406 216.459781 L 97.553469 247.569156 L 98.588625 262.205875 L 99.627688 260.455875 L 100.66675 248.233219 L 101.701906 250.881656 L 102.740969 249.885562 L 103.780031 237.7215 L 104.815188 210.616031 L 105.85425 189.147281 L 106.893313 186.955875 L 107.928469 219.00275 L 108.967531 230.397281 L 110.006594 214.807437 L 111.04175 193.893375 L 112.080813 200.354312 L 113.119875 233.31525 L 114.155031 254.772281 L 115.194094 261.651187 L 116.233156 244.623844 L 117.268313 219.592594 L 118.307375 206.209781 L 119.346438 175.768375 L 120.381594 189.619937 L 121.420656 219.506656 L 122.459719 203.053531 L 123.494875 224.604312 L 124.533938 227.143375 L 125.573 231.69025 L 126.612063 228.784 L 127.647219 172.619937 L 128.686281 169.006656 L 129.725344 163.295719 L 130.7605 128.280094 L 131.799563 152.9715 L 132.838625 175.338687 L 133.873781 160.69025 L 134.912844 153.916812 L 135.951906 197.092594 L 136.987063 194.838687 L 138.026125 164.088687 L 139.065188 172.826969 L 140.100344 211.116031 L 141.139406 203.3465 L 142.178469 192.75275 L 143.213625 162.826969 L 144.252688 171.112125 L 145.29175 237.174625 L 146.326906 247.873844 L 147.365969 230.619937 L 148.405031 245.420719 L 149.440188 239.323062 L 150.47925 218.666812 L 151.518313 236.455875 L 152.553469 250.62775 L 153.592531 256.56525 L 154.631594 267.573062 L 155.66675 268.506656 L 156.705813 257.725406 L 157.744875 258.951969 L 158.780031 226.983219 L 159.819094 208.733219 L 160.858156 234.709781 L 161.893313 221.858219 L 162.932375 217.686344 L 163.971438 255.580875 L 165.006594 257.573062 L 166.045656 237.56525 L 167.084719 224.534 L 168.119875 225.955875 L 169.158938 241.264469 L 170.198 246.701969 L 171.233156 224.393375 L 172.272219 226.241031 L 173.311281 220.686344 L 174.350344 220.725406 L 175.3855 205.780094 L 176.424563 208.912906 L 177.463625 238.366031 L 178.498781 239.291812 L 179.537844 212.537906 L 180.576906 206.705875 L 181.612063 213.588687 L 182.651125 223.248844 L 183.690188 240.166812 L 184.725344 216.178531 L 185.764406 183.75275 L 186.803469 175.924625 L 187.838625 166.655094 L 188.877688 202.284 L 189.91675 227.885562 L 190.951906 213.069156 L 191.990969 181.479312 L 193.030031 188.479312 L 194.065188 217.7215 L 195.10425 244.510562 L 196.143313 245.010562 L 197.178469 236.401187 L 198.217531 218.866031 L 199.256594 208.182437 L 200.29175 234.592594 L 201.330813 239.014469 L 202.369875 227.3465 L 203.405031 203.092594 L 204.444094 196.498844 L 205.483156 246.280094 L 206.518313 264.580875 L 207.557375 254.123844 L 208.596438 230.963687 L 209.631594 219.448062 L 210.670656 194.225406 L 211.709719 149.229312 L 212.744875 198.19025 L 213.783938 211.799625 L 214.823 180.022281 L 215.858156 212.053531 L 216.897219 211.62775 L 217.936281 159.709781 L 218.971438 148.248844 L 220.0105 135.541812 L 221.049563 143.463687 L 222.088625 173.311344 L 223.123781 180.920719 L 224.162844 148.725406 L 225.201906 157.076969 L 226.237063 175.213687 L 227.276125 145.866031 L 228.315188 152.635562 L 229.350344 153.545719 L 230.389406 173.963687 L 231.428469 203.034 L 232.463625 187.330875 L 233.502688 195.87775 L 234.54175 189.717594 L 236.615969 193.092594 L 237.655031 153.049625 L 238.690188 166.483219 L 239.72925 177.616031 L 240.768313 145.81525 L 241.803469 128.537906 L 242.842531 151.291812 L 243.881594 164.772281 L 244.91675 188.358219 L 245.955813 239.545719 L 246.994875 249.776187 L 248.030031 241.604312 L 249.069094 244.428531 L 250.108156 228.455875 L 251.143313 222.760562 L 252.182375 247.104312 L 253.221438 252.791812 L 254.256594 246.955875 L 255.295656 255.123844 L 256.334719 254.420719 L 257.369875 237.131656 L 258.408937 218.416812 L 259.448 239.037906 L 260.483156 248.553531 L 261.522219 245.655094 L 262.561281 220.475406 L 263.596437 228.608219 L 264.6355 261.330875 L 265.674562 263.155094 L 266.709719 258.280094 L 267.748781 270.709781 L 268.787844 269.073062 L 269.826906 244.889469 L 270.862062 215.135562 L 271.901125 210.397281 L 272.940187 226.393375 L 273.975344 234.537906 L 275.014406 241.510562 L 276.053469 243.944156 L 277.088625 243.463687 L 278.127687 245.147281 L 279.16675 261.405094 L 280.201906 266.811344 L 281.240969 262.659 L 282.280031 256.616031 L 283.315187 244.9715 L 284.35425 234.147281 L 286.428469 257.424625 L 287.467531 257.393375 L 288.506594 253.823062 L 289.54175 250.62775 L 290.580812 257.932437 L 291.619875 260.409 L 292.655031 255.409 L 293.694094 249.12775 L 294.733156 248.670719 L 295.768312 244.018375 L 296.807375 235.561344 " transform="matrix(1,0,0,-1,24.552,305.409)"/>
</g>
<g style="fill:rgb(0%,0%,0%);fill-opacity:1;">
  <use xlink:href="#glyph0-7" x="149.057" y="329.662"/>
  <use xlink:href="#glyph0-8" x="152.931455" y="329.662"/>
  <use xlink:href="#glyph0-9" x="155.699065" y="329.662"/>
  <use xlink:href="#glyph0-10" x="164.0009" y="329.662"/>
</g>
<g style="fill:rgb(0%,0%,0%);fill-opacity:1;">
  <use xlink:href="#glyph0-11" x="171.745825" y="329.662"/>
  <use xlink:href="#glyph0-12" x="175.62028" y="329.662"/>
  <use xlink:href="#glyph0-13" x="181.155501" y="329.662"/>
</g>
<g style="fill:rgb(0%,0%,0%);fill-opacity:1;">
  <use xlink:href="#glyph0-14" x="185.867811" y="329.662"/>
  <use xlink:href="#glyph0-15" x="191.126071" y="329.662"/>
  <use xlink:href="#glyph0-16" x="195.05532" y="329.662"/>
</g>
<g clip-path="url(#clip6)" clip-rule="nonzero">
<path style="fill-rule:nonzero;fill:rgb(100%,100%,100%);fill-opacity:1;stroke-width:0.3985;stroke-linecap:butt;stroke-linejoin:miter;stroke:rgb(100%,100%,100%);stroke-opacity:1;stroke-miterlimit:10;" d="M 308.049562 248.619937 L 352.893312 248.619937 L 352.893312 298.682437 L 308.049562 298.682437 Z M 308.049562 248.619937 " transform="matrix(1,0,0,-1,24.552,305.409)"/>
</g>
<path style="fill:none;stroke-width:0.3985;stroke-linecap:butt;stroke-linejoin:miter;stroke:rgb(0%,44.699097%,74.099731%);stroke-opacity:1;stroke-miterlimit:10;" d="M 0.00115625 0.001875 L 17.008969 0.001875 " transform="matrix(1,0,0,-1,335.784,13.33)"/>
<g style="fill:rgb(0%,0%,0%);fill-opacity:1;">
  <use xlink:href="#glyph3-1" x="354.486" y="15.322"/>
  <use xlink:href="#glyph3-2" x="358.221975" y="15.322"/>
  <use xlink:href="#glyph3-3" x="360.297683" y="15.322"/>
  <use xlink:href="#glyph3-4" x="364.033658" y="15.322"/>
  <use xlink:href="#glyph3-5" x="369.63762" y="15.322"/>
</g>
<path style="fill:none;stroke-width:0.3985;stroke-linecap:butt;stroke-linejoin:miter;stroke:rgb(84.999084%,32.499695%,9.799194%);stroke-opacity:1;stroke-miterlimit:10;" d="M 0.00115625 -0.001875 L 17.008969 -0.001875 " transform="matrix(1,0,0,-1,335.784,22.545)"/>
<g style="fill:rgb(0%,0%,0%);fill-opacity:1;">
  <use xlink:href="#glyph3-1" x="354.486" y="24.538"/>
  <use xlink:href="#glyph3-2" x="358.221975" y="24.538"/>
  <use xlink:href="#glyph3-6" x="360.297683" y="24.538"/>
  <use xlink:href="#glyph3-4" x="364.033658" y="24.538"/>
  <use xlink:href="#glyph3-5" x="369.63762" y="24.538"/>
</g>
<path style="fill:none;stroke-width:0.3985;stroke-linecap:butt;stroke-linejoin:miter;stroke:rgb(92.89856%,69.398499%,12.5%);stroke-opacity:1;stroke-miterlimit:10;" d="M 0.00115625 -0.00171875 L 17.008969 -0.00171875 " transform="matrix(1,0,0,-1,335.784,31.76)"/>
<g style="fill:rgb(0%,0%,0%);fill-opacity:1;">
  <use xlink:href="#glyph3-1" x="354.486" y="33.753"/>
  <use xlink:href="#glyph3-2" x="358.221975" y="33.753"/>
  <use xlink:href="#glyph3-7" x="360.297683" y="33.753"/>
  <use xlink:href="#glyph3-4" x="364.033658" y="33.753"/>
  <use xlink:href="#glyph3-5" x="369.63762" y="33.753"/>
</g>
<path style="fill:none;stroke-width:0.3985;stroke-linecap:butt;stroke-linejoin:miter;stroke:rgb(49.398804%,18.399048%,55.599976%);stroke-opacity:1;stroke-miterlimit:10;" d="M 0.00115625 -0.0005625 L 17.008969 -0.0005625 " transform="matrix(1,0,0,-1,335.784,40.976)"/>
<g style="fill:rgb(0%,0%,0%);fill-opacity:1;">
  <use xlink:href="#glyph3-1" x="354.486" y="42.968"/>
  <use xlink:href="#glyph3-2" x="358.221975" y="42.968"/>
  <use xlink:href="#glyph3-8" x="360.297683" y="42.968"/>
  <use xlink:href="#glyph3-4" x="364.033658" y="42.968"/>
  <use xlink:href="#glyph3-5" x="369.63762" y="42.968"/>
</g>
<path style="fill:none;stroke-width:0.3985;stroke-linecap:butt;stroke-linejoin:miter;stroke:rgb(46.598816%,67.399597%,18.798828%);stroke-opacity:1;stroke-miterlimit:10;" d="M 0.00115625 -0.00040625 L 17.008969 -0.00040625 " transform="matrix(1,0,0,-1,335.784,50.191)"/>
<g style="fill:rgb(0%,0%,0%);fill-opacity:1;">
  <use xlink:href="#glyph3-1" x="354.486" y="52.184"/>
  <use xlink:href="#glyph3-2" x="358.221975" y="52.184"/>
  <use xlink:href="#glyph3-9" x="360.297683" y="52.184"/>
  <use xlink:href="#glyph3-4" x="364.033658" y="52.184"/>
  <use xlink:href="#glyph3-5" x="369.63762" y="52.184"/>
</g>
</g>
</svg>
